%YAML 1.1
%TAG !u! tag:unity3d.com,2011:
--- !u!162 &1
EditorUserSettings:
  m_ObjectHideFlags: 0
  serializedVersion: 4
  m_ConfigSettings:
    RecentlyUsedSceneGuid-0:
      value: 5400525751005f035e0f5c7047755d44404e1d7f2f7a70327c71496bb4b03768
      flags: 0
    RecentlyUsedSceneGuid-1:
      value: 5a5757560101590a5d0c0e24427b5d44434e4c7a7b7a23677f2b4565b7b5353a
      flags: 0
    RecentlyUsedSceneGuid-2:
      value: 51090354510c585d0f0c5470127359441515407f7f7a7e617d781c63bbb3636e
      flags: 0
    RecentlyUsedSceneGuid-3:
      value: 050100045c565d090c5e5574452108444716487d2a7b20317f701b36e4b4643c
      flags: 0
    RecentlyUsedSceneGuid-4:
      value: 57520303540c5a0955595b204073594412164b297b2b72632f7f4465b7b8613d
      flags: 0
    RecentlyUsedSceneGuid-5:
      value: 5254565554045c5f595e0f7b45750a44141649782d7a70617b2d4d32b5e4676b
      flags: 0
    vcSharedLogLevel:
      value: 0d5e400f0650
      flags: 0
  m_VCAutomaticAdd: 1
  m_VCDebugCom: 0
  m_VCDebugCmd: 0
  m_VCDebugOut: 0
  m_SemanticMergeMode: 2
  m_DesiredImportWorkerCount: 2
  m_StandbyImportWorkerCount: 2
  m_IdleImportWorkerShutdownDelay: 60000
  m_VCShowFailedCheckout: 1
  m_VCOverwriteFailedCheckoutAssets: 1
  m_VCProjectOverlayIcons: 1
  m_VCHierarchyOverlayIcons: 1
  m_VCOtherOverlayIcons: 1
  m_VCAllowAsyncUpdate: 1
  m_ArtifactGarbageCollection: 1
