Using pre-set license
Built from '2021.3/staging' branch; Version is '2021.3.10f1 (1c7d0df0160b) revision 1867021'; Using compiler version '192829333'; Build Type 'Release'
OS: 'Windows 10  (10.0.19044) 64bit Professional' Language: 'es' Physical Memory: 16167 MB
BatchMode: 1, IsHumanControllingUs: 0, StartBugReporterOnCrash: 0, Is64bit: 1, IsPro: 1

COMMAND LINE ARGUMENTS:
C:\Program Files\Unity\Hub\Editor\2021.3.10f1\Editor\Unity.exe
-adb2
-batchMode
-noUpm
-name
AssetImportWorker0
-projectPath
D:/ProyectosUnity/Unity Scripting
-logFile
Logs/AssetImportWorker0.log
-srvPort
56588
Successfully changed project path to: D:/ProyectosUnity/Unity Scripting
D:/ProyectosUnity/Unity Scripting
[UnityMemory] Configuration Parameters - Can be set up in boot.config
    "memorysetup-bucket-allocator-granularity=16"
    "memorysetup-bucket-allocator-bucket-count=8"
    "memorysetup-bucket-allocator-block-size=33554432"
    "memorysetup-bucket-allocator-block-count=8"
    "memorysetup-main-allocator-block-size=16777216"
    "memorysetup-thread-allocator-block-size=16777216"
    "memorysetup-gfx-main-allocator-block-size=16777216"
    "memorysetup-gfx-thread-allocator-block-size=16777216"
    "memorysetup-cache-allocator-block-size=4194304"
    "memorysetup-typetree-allocator-block-size=2097152"
    "memorysetup-profiler-bucket-allocator-granularity=16"
    "memorysetup-profiler-bucket-allocator-bucket-count=8"
    "memorysetup-profiler-bucket-allocator-block-size=33554432"
    "memorysetup-profiler-bucket-allocator-block-count=8"
    "memorysetup-profiler-allocator-block-size=16777216"
    "memorysetup-profiler-editor-allocator-block-size=1048576"
    "memorysetup-temp-allocator-size-main=16777216"
    "memorysetup-job-temp-allocator-block-size=2097152"
    "memorysetup-job-temp-allocator-block-size-background=1048576"
    "memorysetup-job-temp-allocator-reduction-small-platforms=262144"
    "memorysetup-temp-allocator-size-background-worker=32768"
    "memorysetup-temp-allocator-size-job-worker=262144"
    "memorysetup-temp-allocator-size-preload-manager=33554432"
    "memorysetup-temp-allocator-size-nav-mesh-worker=65536"
    "memorysetup-temp-allocator-size-audio-worker=65536"
    "memorysetup-temp-allocator-size-cloud-worker=32768"
    "memorysetup-temp-allocator-size-gi-baking-worker=262144"
    "memorysetup-temp-allocator-size-gfx=262144"
Refreshing native plugins compatible for Editor in 69.99 ms, found 3 plugins.
Preloading 0 native plugins for Editor in 0.00 ms.
Initialize engine version: 2021.3.10f1 (1c7d0df0160b)
[Subsystems] Discovering subsystems at path C:/Program Files/Unity/Hub/Editor/2021.3.10f1/Editor/Data/Resources/UnitySubsystems
[Subsystems] Discovering subsystems at path D:/ProyectosUnity/Unity Scripting/Assets
GfxDevice: creating device client; threaded=0; jobified=0
Direct3D:
    Version:  Direct3D 11.0 [level 11.1]
    Renderer: NVIDIA GeForce RTX 3050 Laptop GPU (ID=0x25a2)
    Vendor:   NVIDIA
    VRAM:     3993 MB
    Driver:   30.0.15.1236
Initialize mono
Mono path[0] = 'C:/Program Files/Unity/Hub/Editor/2021.3.10f1/Editor/Data/Managed'
Mono path[1] = 'C:/Program Files/Unity/Hub/Editor/2021.3.10f1/Editor/Data/MonoBleedingEdge/lib/mono/unityjit-win32'
Mono config path = 'C:/Program Files/Unity/Hub/Editor/2021.3.10f1/Editor/Data/MonoBleedingEdge/etc'
Using monoOptions --debugger-agent=transport=dt_socket,embedding=1,server=y,suspend=n,address=127.0.0.1:56116
Begin MonoManager ReloadAssembly
Registering precompiled unity dll's ...
Register platform support module: C:/Program Files/Unity/Hub/Editor/2021.3.10f1/Editor/Data/PlaybackEngines/WindowsStandaloneSupport/UnityEditor.WindowsStandalone.Extensions.dll
Registered in 0.063244 seconds.
Native extension for WindowsStandalone target not found
Refreshing native plugins compatible for Editor in 63.05 ms, found 3 plugins.
Preloading 0 native plugins for Editor in 0.00 ms.
Mono: successfully reloaded assembly
- Completed reload, in  3.758 seconds
Domain Reload Profiling:
	ReloadAssembly (3759ms)
		BeginReloadAssembly (2748ms)
			ExecutionOrderSort (0ms)
			DisableScriptedObjects (0ms)
			BackupInstance (0ms)
			ReleaseScriptingObjects (0ms)
			CreateAndSetChildDomain (1ms)
		EndReloadAssembly (676ms)
			LoadAssemblies (2749ms)
			RebuildTransferFunctionScriptingTraits (0ms)
			SetupTypeCache (357ms)
			ReleaseScriptCaches (0ms)
			RebuildScriptCaches (24ms)
			SetupLoadedEditorAssemblies (248ms)
				LogAssemblyErrors (0ms)
				InitializePlatformSupportModulesInManaged (8ms)
				SetLoadedEditorAssemblies (0ms)
				RefreshPlugins (63ms)
				BeforeProcessingInitializeOnLoad (1ms)
				ProcessInitializeOnLoadAttributes (127ms)
				ProcessInitializeOnLoadMethodAttributes (47ms)
				AfterProcessingInitializeOnLoad (0ms)
				EditorAssembliesLoaded (0ms)
			ExecutionOrderSort2 (0ms)
			AwakeInstancesAfterBackupRestoration (0ms)
Platform modules already initialized, skipping
Registering precompiled user dll's ...
Registered in 0.003517 seconds.
Begin MonoManager ReloadAssembly
Symbol file LoadedFromMemory doesn't match image D:\ProyectosUnity\Unity Scripting\Library\PackageCache\com.unity.visualscripting@1.7.8\Editor\VisualScripting.Core\Dependencies\YamlDotNet\Unity.VisualScripting.YamlDotNet.dll
Symbol file LoadedFromMemory doesn't match image D:\ProyectosUnity\Unity Scripting\Library\PackageCache\com.unity.visualscripting@1.7.8\Editor\VisualScripting.Core\Dependencies\DotNetZip\Unity.VisualScripting.IonicZip.dll
Native extension for WindowsStandalone target not found
Refreshing native plugins compatible for Editor in 0.62 ms, found 3 plugins.
Preloading 0 native plugins for Editor in 0.00 ms.
Mono: successfully reloaded assembly
- Completed reload, in  4.032 seconds
Domain Reload Profiling:
	ReloadAssembly (4033ms)
		BeginReloadAssembly (103ms)
			ExecutionOrderSort (0ms)
			DisableScriptedObjects (6ms)
			BackupInstance (0ms)
			ReleaseScriptingObjects (0ms)
			CreateAndSetChildDomain (20ms)
		EndReloadAssembly (3783ms)
			LoadAssemblies (1994ms)
			RebuildTransferFunctionScriptingTraits (0ms)
			SetupTypeCache (627ms)
			ReleaseScriptCaches (0ms)
			RebuildScriptCaches (48ms)
			SetupLoadedEditorAssemblies (1075ms)
				LogAssemblyErrors (0ms)
				InitializePlatformSupportModulesInManaged (4ms)
				SetLoadedEditorAssemblies (0ms)
				RefreshPlugins (1ms)
				BeforeProcessingInitializeOnLoad (84ms)
				ProcessInitializeOnLoadAttributes (281ms)
				ProcessInitializeOnLoadMethodAttributes (698ms)
				AfterProcessingInitializeOnLoad (6ms)
				EditorAssembliesLoaded (0ms)
			ExecutionOrderSort2 (0ms)
			AwakeInstancesAfterBackupRestoration (5ms)
Platform modules already initialized, skipping
========================================================================
Worker process is ready to serve import requests
Launched and connected shader compiler UnityShaderCompiler.exe after 0.10 seconds
Refreshing native plugins compatible for Editor in 1.13 ms, found 3 plugins.
Preloading 0 native plugins for Editor in 0.00 ms.
Unloading 3383 Unused Serialized files (Serialized files now loaded: 0)
Unloading 27 unused Assets / (113.5 KB). Loaded Objects now: 3840.
Memory consumption went from 116.3 MB to 116.2 MB.
Total: 2.740100 ms (FindLiveObjects: 0.252100 ms CreateObjectMapping: 0.118600 ms MarkObjects: 2.222200 ms  DeleteObjects: 0.146300 ms)

AssetImportParameters requested are different than current active one (requested -> active):
  custom:video-decoder-ogg-theora: a1e56fd34408186e4bbccfd4996cb3dc -> 
  custom:container-muxer-webm: aa71ff27fc2769a1b78a27578f13a17b -> 
  custom:container-demuxer-webm: 4f35f7cbe854078d1ac9338744f61a02 -> 
  custom:video-encoder-webm-vp8: eb34c28f22e8b96e1ab97ce403110664 -> 
  custom:audio-encoder-webm-vorbis: bf7c407c2cedff20999df2af8eb42d56 -> 
  custom:framework-win-MediaFoundation: 216162199b28c13a410421893ffa2e32 -> 
  custom:container-demuxer-ogg: 62fdf1f143b41e24485cea50d1cbac27 -> 
  custom:video-decoder-webm-vp8: 9c59270c3fd7afecdb556c50c9e8de78 -> 
  custom:audio-decoder-ogg-vorbis: bf7c407c2cedff20999df2af8eb42d56 -> 
========================================================================
Received Import Request.
  Time since last request: 120375.842599 seconds.
  path: Assets/Scripts/Unity.VisualScripting.Generated/VisualScripting.Flow/New Script Graph.asset
  artifactKey: Guid(20269b2a68509aa4883ca1fa42132733) Importer(815301076,1909f56bfc062723c751e8b465ee728b)
Start importing Assets/Scripts/Unity.VisualScripting.Generated/VisualScripting.Flow/New Script Graph.asset using Guid(20269b2a68509aa4883ca1fa42132733) Importer(815301076,1909f56bfc062723c751e8b465ee728b)  -> (artifact id: 'cbeac105a1c94348bab39ac4c21c62d0') in 0.153064 seconds 
========================================================================
Received Import Request.
  Time since last request: 242.017908 seconds.
  path: Assets/Scenes/Transform.unity
  artifactKey: Guid(71f145683a0276b469e5c26b184860c0) Importer(815301076,1909f56bfc062723c751e8b465ee728b)
Start importing Assets/Scenes/Transform.unity using Guid(71f145683a0276b469e5c26b184860c0) Importer(815301076,1909f56bfc062723c751e8b465ee728b)  -> (artifact id: 'e6ceb61dd5f9fd72c03be8f42daf621c') in 0.138903 seconds 
========================================================================
Received Import Request.
  Time since last request: 60.965956 seconds.
  path: Assets/Scripts/Unity.VisualScripting.Generated/VisualScripting.Flow/CapsuleRotation.asset
  artifactKey: Guid(20269b2a68509aa4883ca1fa42132733) Importer(815301076,1909f56bfc062723c751e8b465ee728b)
Start importing Assets/Scripts/Unity.VisualScripting.Generated/VisualScripting.Flow/CapsuleRotation.asset using Guid(20269b2a68509aa4883ca1fa42132733) Importer(815301076,1909f56bfc062723c751e8b465ee728b)  -> (artifact id: '170c83d47b527095267450e25d6027ba') in 0.682930 seconds 
========================================================================
Received Import Request.
  Time since last request: 358.535577 seconds.
  path: Assets/Scripts/NewBehaviourScript.cs
  artifactKey: Guid(6735d65863ddcc744ad7e35f1db55170) Importer(815301076,1909f56bfc062723c751e8b465ee728b)
Start importing Assets/Scripts/NewBehaviourScript.cs using Guid(6735d65863ddcc744ad7e35f1db55170) Importer(815301076,1909f56bfc062723c751e8b465ee728b)  -> (artifact id: '0f163f0c841d0883cebb7d38e385ce2a') in 0.028830 seconds 
========================================================================
Received Prepare
Registering precompiled user dll's ...
Registered in 0.003530 seconds.
Begin MonoManager ReloadAssembly
Symbol file LoadedFromMemory doesn't match image D:\ProyectosUnity\Unity Scripting\Library\PackageCache\com.unity.visualscripting@1.7.8\Editor\VisualScripting.Core\Dependencies\YamlDotNet\Unity.VisualScripting.YamlDotNet.dll
Symbol file LoadedFromMemory doesn't match image D:\ProyectosUnity\Unity Scripting\Library\PackageCache\com.unity.visualscripting@1.7.8\Editor\VisualScripting.Core\Dependencies\DotNetZip\Unity.VisualScripting.IonicZip.dll
Native extension for WindowsStandalone target not found
Refreshing native plugins compatible for Editor in 0.51 ms, found 3 plugins.
Preloading 0 native plugins for Editor in 0.00 ms.
Mono: successfully reloaded assembly
- Completed reload, in  0.934 seconds
Domain Reload Profiling:
	ReloadAssembly (935ms)
		BeginReloadAssembly (139ms)
			ExecutionOrderSort (0ms)
			DisableScriptedObjects (6ms)
			BackupInstance (0ms)
			ReleaseScriptingObjects (0ms)
			CreateAndSetChildDomain (52ms)
		EndReloadAssembly (709ms)
			LoadAssemblies (68ms)
			RebuildTransferFunctionScriptingTraits (0ms)
			SetupTypeCache (223ms)
			ReleaseScriptCaches (1ms)
			RebuildScriptCaches (31ms)
			SetupLoadedEditorAssemblies (346ms)
				LogAssemblyErrors (0ms)
				InitializePlatformSupportModulesInManaged (10ms)
				SetLoadedEditorAssemblies (0ms)
				RefreshPlugins (1ms)
				BeforeProcessingInitializeOnLoad (77ms)
				ProcessInitializeOnLoadAttributes (212ms)
				ProcessInitializeOnLoadMethodAttributes (38ms)
				AfterProcessingInitializeOnLoad (8ms)
				EditorAssembliesLoaded (0ms)
			ExecutionOrderSort2 (0ms)
			AwakeInstancesAfterBackupRestoration (7ms)
Platform modules already initialized, skipping
Refreshing native plugins compatible for Editor in 1.56 ms, found 3 plugins.
Preloading 0 native plugins for Editor in 0.00 ms.
Unloading 3378 Unused Serialized files (Serialized files now loaded: 0)
Unloading 20 unused Assets / (79.8 KB). Loaded Objects now: 3844.
Memory consumption went from 116.2 MB to 116.2 MB.
Total: 2.659700 ms (FindLiveObjects: 0.257600 ms CreateObjectMapping: 0.086900 ms MarkObjects: 2.219800 ms  DeleteObjects: 0.094300 ms)

AssetImportParameters requested are different than current active one (requested -> active):
  custom:video-decoder-ogg-theora: a1e56fd34408186e4bbccfd4996cb3dc -> 
  custom:container-muxer-webm: aa71ff27fc2769a1b78a27578f13a17b -> 
  custom:container-demuxer-webm: 4f35f7cbe854078d1ac9338744f61a02 -> 
  custom:video-encoder-webm-vp8: eb34c28f22e8b96e1ab97ce403110664 -> 
  custom:audio-encoder-webm-vorbis: bf7c407c2cedff20999df2af8eb42d56 -> 
  custom:framework-win-MediaFoundation: 216162199b28c13a410421893ffa2e32 -> 
  custom:container-demuxer-ogg: 62fdf1f143b41e24485cea50d1cbac27 -> 
  custom:video-decoder-webm-vp8: 9c59270c3fd7afecdb556c50c9e8de78 -> 
  custom:audio-decoder-ogg-vorbis: bf7c407c2cedff20999df2af8eb42d56 -> 
========================================================================
Received Import Request.
  Time since last request: 120.736015 seconds.
  path: Assets/Scripts/CapsuleScaling.cs
  artifactKey: Guid(1cdc314edd32da640aa76857a700a366) Importer(815301076,1909f56bfc062723c751e8b465ee728b)
Start importing Assets/Scripts/CapsuleScaling.cs using Guid(1cdc314edd32da640aa76857a700a366) Importer(815301076,1909f56bfc062723c751e8b465ee728b)  -> (artifact id: 'fdda9f2bc7431ee3258ad2fc9e86c44a') in 0.025375 seconds 
========================================================================
Received Import Request.
  Time since last request: 31.555028 seconds.
  path: Assets/Scripts/PlayerTankController.cs
  artifactKey: Guid(4ee85d29d1555dc4e941ff3470111c1a) Importer(815301076,1909f56bfc062723c751e8b465ee728b)
Start importing Assets/Scripts/PlayerTankController.cs using Guid(4ee85d29d1555dc4e941ff3470111c1a) Importer(815301076,1909f56bfc062723c751e8b465ee728b)  -> (artifact id: 'cfde5dbcec3753539a0f17a3e0830807') in 0.010530 seconds 
========================================================================
Received Import Request.
  Time since last request: 449.046335 seconds.
  path: Assets/Scripts/PlayerTankController.cs
  artifactKey: Guid(4ee85d29d1555dc4e941ff3470111c1a) Importer(815301076,1909f56bfc062723c751e8b465ee728b)
Start importing Assets/Scripts/PlayerTankController.cs using Guid(4ee85d29d1555dc4e941ff3470111c1a) Importer(815301076,1909f56bfc062723c751e8b465ee728b)  -> (artifact id: '9d4704ed9f978fe871f92050f61fb16c') in 0.020719 seconds 
========================================================================
Received Import Request.
  Time since last request: 80.543793 seconds.
  path: Assets/Scripts/CapsuleRotation.cs
  artifactKey: Guid(41ce4a097e8123a44a2ab9a437cdfdaf) Importer(815301076,1909f56bfc062723c751e8b465ee728b)
Start importing Assets/Scripts/CapsuleRotation.cs using Guid(41ce4a097e8123a44a2ab9a437cdfdaf) Importer(815301076,1909f56bfc062723c751e8b465ee728b)  -> (artifact id: '6c3c42bba1cd666dfe89940bc1bc3d9b') in 0.008393 seconds 
========================================================================
Received Import Request.
  Time since last request: 233.858007 seconds.
  path: Assets/Scripts/CapsuleRotation.cs
  artifactKey: Guid(41ce4a097e8123a44a2ab9a437cdfdaf) Importer(815301076,1909f56bfc062723c751e8b465ee728b)
Start importing Assets/Scripts/CapsuleRotation.cs using Guid(41ce4a097e8123a44a2ab9a437cdfdaf) Importer(815301076,1909f56bfc062723c751e8b465ee728b)  -> (artifact id: 'aa1f3ec938d35466392ac510338c1d80') in 0.007485 seconds 
========================================================================
Received Import Request.
  Time since last request: 308.927380 seconds.
  path: Assets/Scripts/CapsuleRotation.cs
  artifactKey: Guid(41ce4a097e8123a44a2ab9a437cdfdaf) Importer(815301076,1909f56bfc062723c751e8b465ee728b)
Start importing Assets/Scripts/CapsuleRotation.cs using Guid(41ce4a097e8123a44a2ab9a437cdfdaf) Importer(815301076,1909f56bfc062723c751e8b465ee728b)  -> (artifact id: 'b918a8ad70ae3efd3a10680213defe4f') in 0.018095 seconds 
========================================================================
Received Import Request.
  Time since last request: 91.038523 seconds.
  path: Assets/Scripts/Unity.VisualScripting.Generated/VisualScripting.Flow/CapsuleScaling.asset
  artifactKey: Guid(d9f86600a2d51144cb5efb652d42839a) Importer(815301076,1909f56bfc062723c751e8b465ee728b)
Start importing Assets/Scripts/Unity.VisualScripting.Generated/VisualScripting.Flow/CapsuleScaling.asset using Guid(d9f86600a2d51144cb5efb652d42839a) Importer(815301076,1909f56bfc062723c751e8b465ee728b)  -> (artifact id: '98d4d8310ab25c98659920e6d1afd90b') in 0.066285 seconds 
========================================================================
Received Import Request.
  Time since last request: 882.418389 seconds.
  path: Assets/Scripts/Unity.VisualScripting.Generated/VisualScripting.Flow/CapsuleRotation.asset
  artifactKey: Guid(20269b2a68509aa4883ca1fa42132733) Importer(815301076,1909f56bfc062723c751e8b465ee728b)
Start importing Assets/Scripts/Unity.VisualScripting.Generated/VisualScripting.Flow/CapsuleRotation.asset using Guid(20269b2a68509aa4883ca1fa42132733) Importer(815301076,1909f56bfc062723c751e8b465ee728b)  -> (artifact id: '5f0c8f909b132468f4fb188de4de514f') in 3.072180 seconds 
========================================================================
Received Import Request.
  Time since last request: 30.784968 seconds.
  path: Assets/Scripts/Unity.VisualScripting.Generated/VisualScripting.Flow/PlayerTankController.asset
  artifactKey: Guid(c844e4cba70652348a60e48411ed9805) Importer(815301076,1909f56bfc062723c751e8b465ee728b)
Start importing Assets/Scripts/Unity.VisualScripting.Generated/VisualScripting.Flow/PlayerTankController.asset using Guid(c844e4cba70652348a60e48411ed9805) Importer(815301076,1909f56bfc062723c751e8b465ee728b)  -> (artifact id: 'cebeb23a59a6d3026cae4e187c668fe3') in 0.008348 seconds 
========================================================================
Received Import Request.
  Time since last request: 1029.949145 seconds.
  path: Assets/Scripts/Unity.VisualScripting.Generated/VisualScripting.Flow/PlayerTankController.asset
  artifactKey: Guid(c844e4cba70652348a60e48411ed9805) Importer(815301076,1909f56bfc062723c751e8b465ee728b)
Start importing Assets/Scripts/Unity.VisualScripting.Generated/VisualScripting.Flow/PlayerTankController.asset using Guid(c844e4cba70652348a60e48411ed9805) Importer(815301076,1909f56bfc062723c751e8b465ee728b)  -> (artifact id: 'a9a4db5445f808730e408f35feb856f0') in 0.074723 seconds 
