%YAML 1.1
%TAG !u! tag:unity3d.com,2011:
--- !u!114 &11400000
MonoBehaviour:
  m_ObjectHideFlags: 0
  m_CorrespondingSourceObject: {fileID: 0}
  m_PrefabInstance: {fileID: 0}
  m_PrefabAsset: {fileID: 0}
  m_GameObject: {fileID: 0}
  m_Enabled: 1
  m_EditorHideFlags: 0
  m_Script: {fileID: 11500000, guid: 95e66c6366d904e98bc83428217d4fd7, type: 3}
  m_Name: CapsuleScaling
  m_EditorClassIdentifier: 
  _data:
    _json: '{"graph":{"variables":{"Kind":"Flow","collection":{"$content":[],"$version":"A"},"$version":"A"},"controlInputDefinitions":[],"controlOutputDefinitions":[],"valueInputDefinitions":[],"valueOutputDefinitions":[],"title":null,"summary":null,"pan":{"x":201.3804,"y":76.0},"zoom":1.0,"elements":[{"coroutine":false,"defaultValues":{},"position":{"x":-246.0,"y":-98.0},"guid":"7ef641f2-8311-4600-a620-d1bde9b31c0c","$version":"A","$type":"Unity.VisualScripting.Update","$id":"9"},{"chainable":false,"member":{"name":"ClampMagnitude","parameterTypes":["UnityEngine.Vector3","System.Single"],"targetType":"UnityEngine.Vector3","targetTypeName":"UnityEngine.Vector3","$version":"A"},"defaultValues":{"%vector":{"x":0.0,"y":0.0,"z":0.0,"$type":"UnityEngine.Vector3"},"%maxLength":{"$content":0.0,"$type":"System.Single"}},"position":{"x":-40.0,"y":-109.0},"guid":"5a775bd9-9344-40df-8462-a2f902795025","$version":"A","$type":"Unity.VisualScripting.InvokeMember","$id":"11"},{"specifyFallback":false,"kind":"Object","defaultValues":{"name":{"$content":"Axes","$type":"System.String"},"object":null},"position":{"x":-250.0,"y":16.0},"guid":"b47aa431-6fbf-4bbf-bb0d-368cea64285a","$version":"A","$type":"Unity.VisualScripting.GetVariable","$id":"14"},{"defaultValues":{},"position":{"x":275.0,"y":-3.0},"guid":"0cef9d10-60bd-4945-b1ad-b0ed5b4e57bd","$version":"A","$type":"Unity.VisualScripting.GenericMultiply","$id":"16"},{"chainable":false,"member":{"name":"localScale","parameterTypes":null,"targetType":"UnityEngine.Transform","targetTypeName":"UnityEngine.Transform","$version":"A"},"defaultValues":{"target":null,"input":{"x":0.0,"y":0.0,"z":0.0,"$type":"UnityEngine.Vector3"}},"position":{"x":838.0,"y":-109.0},"guid":"e4810f48-70e2-4a66-95b7-86cc9a946566","$version":"A","$type":"Unity.VisualScripting.SetMember","$id":"18"},{"inputCount":2,"defaultValues":{"1":{"x":0.0,"y":0.0,"z":0.0,"$type":"UnityEngine.Vector3"}},"position":{"x":675.0,"y":-29.0},"guid":"7e5cd43c-7326-4050-a143-b0481a9f81db","$version":"A","$type":"Unity.VisualScripting.Vector3Sum","$id":"21"},{"member":{"name":"localScale","parameterTypes":null,"targetType":"UnityEngine.Transform","targetTypeName":"UnityEngine.Transform","$version":"A"},"defaultValues":{"target":null},"position":{"x":478.0,"y":-225.0},"guid":"9ab7be2c-5709-47ff-901f-04751e016f9b","$version":"A","$type":"Unity.VisualScripting.GetMember","$id":"23"},{"defaultValues":{},"position":{"x":128.0,"y":161.0},"guid":"41e7e108-547e-4daf-ae5d-be69c15df2a3","$version":"A","$type":"Unity.VisualScripting.GenericMultiply","$id":"26"},{"member":{"name":"deltaTime","parameterTypes":null,"targetType":"UnityEngine.Time","targetTypeName":"UnityEngine.Time","$version":"A"},"defaultValues":{},"position":{"x":-250.0,"y":293.0},"guid":"52b8633c-0a71-4705-b71e-1d1135a0c2ab","$version":"A","$type":"Unity.VisualScripting.GetMember","$id":"28"},{"specifyFallback":false,"kind":"Object","defaultValues":{"name":{"$content":"ScaleUnits","$type":"System.String"},"object":null},"position":{"x":-259.0,"y":158.0},"guid":"3de424d3-abfe-4928-b5ff-2561df326c78","$version":"A","$type":"Unity.VisualScripting.GetVariable","$id":"31"},{"sourceUnit":{"$ref":"9"},"sourceKey":"trigger","destinationUnit":{"$ref":"11"},"destinationKey":"enter","guid":"bfa29722-abe5-426f-b7e4-ee39d83338f9","$type":"Unity.VisualScripting.ControlConnection"},{"sourceUnit":{"$ref":"11"},"sourceKey":"exit","destinationUnit":{"$ref":"18"},"destinationKey":"assign","guid":"df5f4720-4de7-4fc1-8730-7378408f67dc","$type":"Unity.VisualScripting.ControlConnection"},{"sourceUnit":{"$ref":"14"},"sourceKey":"value","destinationUnit":{"$ref":"11"},"destinationKey":"%vector","guid":"939a5ba4-6acf-48d0-acd5-5f0a7d9108d4","$type":"Unity.VisualScripting.ValueConnection"},{"sourceUnit":{"$ref":"11"},"sourceKey":"result","destinationUnit":{"$ref":"16"},"destinationKey":"a","guid":"763b6910-0b30-4755-b85e-794524e50c2b","$type":"Unity.VisualScripting.ValueConnection"},{"sourceUnit":{"$ref":"21"},"sourceKey":"sum","destinationUnit":{"$ref":"18"},"destinationKey":"input","guid":"051a3ccf-2467-45e2-871c-e4a65cc822e1","$type":"Unity.VisualScripting.ValueConnection"},{"sourceUnit":{"$ref":"23"},"sourceKey":"value","destinationUnit":{"$ref":"21"},"destinationKey":"0","guid":"274e9e95-9b68-4a48-a41a-0825855cf5c5","$type":"Unity.VisualScripting.ValueConnection"},{"sourceUnit":{"$ref":"16"},"sourceKey":"product","destinationUnit":{"$ref":"21"},"destinationKey":"1","guid":"f3294261-e52d-408f-a89d-105449f45d1a","$type":"Unity.VisualScripting.ValueConnection"},{"sourceUnit":{"$ref":"26"},"sourceKey":"product","destinationUnit":{"$ref":"16"},"destinationKey":"b","guid":"d825eeb6-e81b-4a94-96ab-5621d6c625e7","$type":"Unity.VisualScripting.ValueConnection"},{"sourceUnit":{"$ref":"28"},"sourceKey":"value","destinationUnit":{"$ref":"26"},"destinationKey":"b","guid":"05282729-256b-4048-8f9f-7f0d10598ec6","$type":"Unity.VisualScripting.ValueConnection"},{"sourceUnit":{"$ref":"31"},"sourceKey":"value","destinationUnit":{"$ref":"26"},"destinationKey":"a","guid":"1ad84865-430d-41a1-8b1f-f4fdfd9d4f1b","$type":"Unity.VisualScripting.ValueConnection"}],"$version":"A"}}'
    _objectReferences: []
