%YAML 1.1
%TAG !u! tag:unity3d.com,2011:
--- !u!114 &11400000
MonoBehaviour:
  m_ObjectHideFlags: 0
  m_CorrespondingSourceObject: {fileID: 0}
  m_PrefabInstance: {fileID: 0}
  m_PrefabAsset: {fileID: 0}
  m_GameObject: {fileID: 0}
  m_Enabled: 1
  m_EditorHideFlags: 0
  m_Script: {fileID: 11500000, guid: 95e66c6366d904e98bc83428217d4fd7, type: 3}
  m_Name: Graph
  m_EditorClassIdentifier: 
  _data:
    _json: '{"graph":{"variables":{"Kind":"Flow","collection":{"$content":[],"$version":"A"},"$version":"A"},"controlInputDefinitions":[],"controlOutputDefinitions":[],"valueInputDefinitions":[],"valueOutputDefinitions":[],"title":null,"summary":null,"pan":{"x":-199.0,"y":-12.9},"zoom":1.0,"elements":[{"chainable":false,"member":{"name":"print","parameterTypes":["System.Object"],"targetType":"UnityEngine.MonoBehaviour","targetTypeName":"UnityEngine.MonoBehaviour","$version":"A"},"defaultValues":{},"position":{"x":-49.0,"y":-212.0},"guid":"05f41efe-36ee-4bc7-8fdd-319212bd812b","$version":"A","$type":"Unity.VisualScripting.InvokeMember","$id":"9"},{"coroutine":false,"defaultValues":{},"position":{"x":-350.0,"y":-190.0},"guid":"00311374-ac94-47ae-9c46-51928aec3504","$version":"A","$type":"Unity.VisualScripting.Update","$id":"12"},{"specifyFallback":false,"kind":"Object","defaultValues":{"name":{"$content":"mensaje","$type":"System.String"},"object":null},"position":{"x":-230.0,"y":-73.0},"guid":"c4d56f3c-39f0-4d83-a396-40a279c82b77","$version":"A","$type":"Unity.VisualScripting.GetVariable","$id":"14"},{"sourceUnit":{"$ref":"12"},"sourceKey":"trigger","destinationUnit":{"$ref":"9"},"destinationKey":"enter","guid":"55639efc-4ddd-4fd6-b8b3-5218f62fb574","$type":"Unity.VisualScripting.ControlConnection"},{"sourceUnit":{"$ref":"14"},"sourceKey":"value","destinationUnit":{"$ref":"9"},"destinationKey":"%message","guid":"73a7493f-02f5-4e03-b5dd-40e1e881c4eb","$type":"Unity.VisualScripting.ValueConnection"}],"$version":"A"}}'
    _objectReferences: []
