%YAML 1.1
%TAG !u! tag:unity3d.com,2011:
--- !u!114 &11400000
MonoBehaviour:
  m_ObjectHideFlags: 0
  m_CorrespondingSourceObject: {fileID: 0}
  m_PrefabInstance: {fileID: 0}
  m_PrefabAsset: {fileID: 0}
  m_GameObject: {fileID: 0}
  m_Enabled: 1
  m_EditorHideFlags: 0
  m_Script: {fileID: 11500000, guid: 95e66c6366d904e98bc83428217d4fd7, type: 3}
  m_Name: PlayerTankController
  m_EditorClassIdentifier: 
  _data:
    _json: '{"graph":{"variables":{"Kind":"Flow","collection":{"$content":[],"$version":"A"},"$version":"A"},"controlInputDefinitions":[],"controlOutputDefinitions":[],"valueInputDefinitions":[],"valueOutputDefinitions":[],"title":null,"summary":null,"pan":{"x":-132.6519,"y":43.0},"zoom":1.0,"elements":[{"coroutine":false,"defaultValues":{},"position":{"x":-752.0,"y":-458.0},"guid":"eef34d73-7547-4fe4-b6bb-710ff0ed9e5d","$version":"A","$type":"Unity.VisualScripting.Update","$id":"9"},{"chainable":false,"member":{"name":"Rotate","parameterTypes":["UnityEngine.Vector3"],"targetType":"UnityEngine.Transform","targetTypeName":"UnityEngine.Transform","$version":"A"},"defaultValues":{"target":null,"%eulers":{"x":0.0,"y":0.0,"z":0.0,"$type":"UnityEngine.Vector3"}},"position":{"x":-288.0,"y":161.0},"guid":"2a644998-10ef-4576-b8f3-735ac27cb04a","$version":"A","$type":"Unity.VisualScripting.InvokeMember","$id":"11"},{"chainable":false,"member":{"name":"ClampMagnitude","parameterTypes":["UnityEngine.Vector3","System.Single"],"targetType":"UnityEngine.Vector3","targetTypeName":"UnityEngine.Vector3","$version":"A"},"defaultValues":{"%vector":{"x":0.0,"y":0.0,"z":0.0,"$type":"UnityEngine.Vector3"},"%maxLength":{"$content":0.0,"$type":"System.Single"}},"position":{"x":-596.0,"y":161.0},"guid":"7c742b4d-2765-47ea-9a51-9f1bf4602614","$version":"A","$type":"Unity.VisualScripting.InvokeMember","$id":"14"},{"chainable":false,"member":{"name":"GetKey","parameterTypes":["UnityEngine.KeyCode"],"targetType":"UnityEngine.Input","targetTypeName":"UnityEngine.Input","$version":"A"},"defaultValues":{"%key":{"$content":"None","$type":"UnityEngine.KeyCode"}},"position":{"x":-763.0,"y":289.0},"guid":"ed492f32-049a-465c-bf3f-1c384314942a","$version":"A","$type":"Unity.VisualScripting.InvokeMember","$id":"17"},{"defaultValues":{},"position":{"x":-741.0,"y":160.0},"guid":"98e963ba-d892-4ea4-9b63-2e2a671da211","$version":"A","$type":"Unity.VisualScripting.If","$id":"20"},{"member":{"name":"deltaTime","parameterTypes":null,"targetType":"UnityEngine.Time","targetTypeName":"UnityEngine.Time","$version":"A"},"defaultValues":{},"position":{"x":-422.0,"y":28.0},"guid":"11d5e2c6-e1d3-476d-83b5-5b028799673e","$version":"A","$type":"Unity.VisualScripting.GetMember","$id":"22"},{"defaultValues":{},"position":{"x":-232.0,"y":5.0},"guid":"02a008be-3498-4242-8580-cd6f9cb44709","$version":"A","$type":"Unity.VisualScripting.GenericMultiply","$id":"25"},{"chainable":false,"member":{"name":"Rotate","parameterTypes":["UnityEngine.Vector3"],"targetType":"UnityEngine.Transform","targetTypeName":"UnityEngine.Transform","$version":"A"},"defaultValues":{"target":null,"%eulers":{"x":0.0,"y":0.0,"z":0.0,"$type":"UnityEngine.Vector3"}},"position":{"x":-88.0,"y":-119.0},"guid":"4a528cd7-face-413e-a8ec-53f43af04e17","$version":"A","$type":"Unity.VisualScripting.InvokeMember","$id":"27"},{"chainable":false,"member":{"name":"ClampMagnitude","parameterTypes":["UnityEngine.Vector3","System.Single"],"targetType":"UnityEngine.Vector3","targetTypeName":"UnityEngine.Vector3","$version":"A"},"defaultValues":{"%vector":{"x":0.0,"y":0.0,"z":0.0,"$type":"UnityEngine.Vector3"},"%maxLength":{"$content":0.0,"$type":"System.Single"}},"position":{"x":-428.0,"y":-117.0},"guid":"31b79378-9dd1-414a-9202-038a87bc9aa2","$version":"A","$type":"Unity.VisualScripting.InvokeMember","$id":"30"},{"chainable":false,"member":{"name":"GetKey","parameterTypes":["UnityEngine.KeyCode"],"targetType":"UnityEngine.Input","targetTypeName":"UnityEngine.Input","$version":"A"},"defaultValues":{"%key":{"$content":"None","$type":"UnityEngine.KeyCode"}},"position":{"x":-758.0,"y":4.0},"guid":"ce1603ee-d227-41f5-9f01-be0e3c974354","$version":"A","$type":"Unity.VisualScripting.InvokeMember","$id":"33"},{"defaultValues":{},"position":{"x":-592.0,"y":-117.0},"guid":"7da903a1-faec-4928-bd98-2b95b43bcb62","$version":"A","$type":"Unity.VisualScripting.If","$id":"36"},{"coroutine":false,"defaultValues":{},"position":{"x":-754.0,"y":-116.0},"guid":"2c4dd2a0-cfae-45dc-8389-cd5cf76fcdfe","$version":"A","$type":"Unity.VisualScripting.Update","$id":"38"},{"member":{"name":"deltaTime","parameterTypes":null,"targetType":"UnityEngine.Time","targetTypeName":"UnityEngine.Time","$version":"A"},"defaultValues":{},"position":{"x":319.0,"y":-251.0},"guid":"aac92b5e-86b9-4f2b-802e-22714631b8aa","$version":"A","$type":"Unity.VisualScripting.GetMember","$id":"40"},{"specifyFallback":false,"kind":"Graph","defaultValues":{"name":{"$content":"","$type":"System.String"}},"position":{"x":-583.0,"y":22.0},"guid":"eaaaa7eb-af4b-4339-b9c8-b5590f7a8e67","$version":"A","$type":"Unity.VisualScripting.GetVariable","$id":"43"},{"chainable":false,"member":{"name":"Translate","parameterTypes":["UnityEngine.Vector3"],"targetType":"UnityEngine.Transform","targetTypeName":"UnityEngine.Transform","$version":"A"},"defaultValues":{"target":null,"%translation":{"x":0.0,"y":0.0,"z":0.0,"$type":"UnityEngine.Vector3"}},"position":{"x":576.0,"y":-440.0},"guid":"b9778dc2-7d44-45dc-9a74-ae22ad7ca835","$version":"A","$type":"Unity.VisualScripting.InvokeMember","$id":"45"},{"defaultValues":{},"position":{"x":481.0,"y":-276.0},"guid":"5e0530eb-6174-4e03-a337-0adeecd25ca9","$version":"A","$type":"Unity.VisualScripting.GenericMultiply","$id":"48"},{"chainable":false,"member":{"name":"GetKey","parameterTypes":["UnityEngine.KeyCode"],"targetType":"UnityEngine.Input","targetTypeName":"UnityEngine.Input","$version":"A"},"defaultValues":{"%key":{"$content":"None","$type":"UnityEngine.KeyCode"}},"position":{"x":-753.0,"y":-351.0},"guid":"ede68cd0-d8a0-4f1b-a903-55d279aa9b14","$version":"A","$type":"Unity.VisualScripting.InvokeMember","$id":"50"},{"chainable":false,"member":{"name":"ClampMagnitude","parameterTypes":["UnityEngine.Vector3","System.Single"],"targetType":"UnityEngine.Vector3","targetTypeName":"UnityEngine.Vector3","$version":"A"},"defaultValues":{"%vector":{"x":0.0,"y":0.0,"z":0.0,"$type":"UnityEngine.Vector3"},"%maxLength":{"$content":0.0,"$type":"System.Single"}},"position":{"x":-391.0,"y":-457.0},"guid":"f8b3a30f-887f-443c-b40e-da50523f129f","$version":"A","$type":"Unity.VisualScripting.InvokeMember","$id":"53"},{"specifyFallback":false,"kind":"Graph","defaultValues":{"name":{"$content":"","$type":"System.String"}},"position":{"x":-582.0,"y":-330.0},"guid":"fa32e235-bc3a-427c-8471-11a8e7d2a8b7","$version":"A","$type":"Unity.VisualScripting.GetVariable","$id":"56"},{"chainable":false,"member":{"name":"Translate","parameterTypes":["UnityEngine.Vector3"],"targetType":"UnityEngine.Transform","targetTypeName":"UnityEngine.Transform","$version":"A"},"defaultValues":{"target":null,"%translation":{"x":0.0,"y":0.0,"z":0.0,"$type":"UnityEngine.Vector3"}},"position":{"x":-170.0,"y":-459.0},"guid":"210e21e8-bd25-4b39-91b1-03af73953974","$version":"A","$type":"Unity.VisualScripting.InvokeMember","$id":"58"},{"defaultValues":{},"position":{"x":-249.0,"y":-311.0},"guid":"d2b375b4-3273-4154-b466-1bbee7c1c754","$version":"A","$type":"Unity.VisualScripting.GenericMultiply","$id":"61"},{"defaultValues":{},"position":{"x":-579.0,"y":-459.0},"guid":"592c3eda-d4a5-49ca-9475-225b80062f54","$version":"A","$type":"Unity.VisualScripting.If","$id":"63"},{"defaultValues":{},"position":{"x":232.0,"y":-440.0},"guid":"6268dcf9-45ac-4822-8c14-e38d2c428594","$version":"A","$type":"Unity.VisualScripting.If","$id":"65"},{"chainable":false,"member":{"name":"GetKey","parameterTypes":["UnityEngine.KeyCode"],"targetType":"UnityEngine.Input","targetTypeName":"UnityEngine.Input","$version":"A"},"defaultValues":{"%key":{"$content":"None","$type":"UnityEngine.KeyCode"}},"position":{"x":23.0,"y":-436.0},"guid":"8cba2c67-9b13-4084-b929-a26b7ab586e2","$version":"A","$type":"Unity.VisualScripting.InvokeMember","$id":"67"},{"chainable":false,"member":{"name":"ClampMagnitude","parameterTypes":["UnityEngine.Vector3","System.Single"],"targetType":"UnityEngine.Vector3","targetTypeName":"UnityEngine.Vector3","$version":"A"},"defaultValues":{"%vector":{"x":0.0,"y":0.0,"z":0.0,"$type":"UnityEngine.Vector3"},"%maxLength":{"$content":0.0,"$type":"System.Single"}},"position":{"x":368.0,"y":-440.0},"guid":"334c24ca-917b-448c-9a9b-54bd4ac59276","$version":"A","$type":"Unity.VisualScripting.InvokeMember","$id":"70"},{"specifyFallback":false,"kind":"Graph","defaultValues":{"name":{"$content":"","$type":"System.String"}},"position":{"x":175.0,"y":-311.0},"guid":"996e9c07-0aa9-4e07-8235-bf637f297a01","$version":"A","$type":"Unity.VisualScripting.GetVariable","$id":"73"},{"member":{"name":"deltaTime","parameterTypes":null,"targetType":"UnityEngine.Time","targetTypeName":"UnityEngine.Time","$version":"A"},"defaultValues":{},"position":{"x":-433.0,"y":-309.0},"guid":"1d61dc5a-23ec-4e03-b81d-4777c34769fa","$version":"A","$type":"Unity.VisualScripting.GetMember","$id":"75"},{"defaultValues":{},"position":{"x":-418.0,"y":278.0},"guid":"1129af57-e592-4c53-a6e7-38354f420b28","$version":"A","$type":"Unity.VisualScripting.GenericMultiply","$id":"78"},{"specifyFallback":false,"kind":"Graph","defaultValues":{"name":{"$content":"","$type":"System.String"}},"position":{"x":-588.0,"y":304.0},"guid":"f1a7907e-337a-43b1-975d-db6771490db1","$version":"A","$type":"Unity.VisualScripting.GetVariable","$id":"80"},{"member":{"name":"deltaTime","parameterTypes":null,"targetType":"UnityEngine.Time","targetTypeName":"UnityEngine.Time","$version":"A"},"defaultValues":{},"position":{"x":-588.0,"y":418.0},"guid":"fbce4fdb-0a5a-4a4d-84eb-ad28b443b5fc","$version":"A","$type":"Unity.VisualScripting.GetMember","$id":"82"},{"sourceUnit":{"$ref":"9"},"sourceKey":"trigger","destinationUnit":{"$ref":"63"},"destinationKey":"enter","guid":"7f4ff483-511b-4202-853f-8a216705f406","$type":"Unity.VisualScripting.ControlConnection"},{"sourceUnit":{"$ref":"14"},"sourceKey":"exit","destinationUnit":{"$ref":"11"},"destinationKey":"enter","guid":"0249d73c-2025-45ba-a627-771c4f755b6d","$type":"Unity.VisualScripting.ControlConnection"},{"sourceUnit":{"$ref":"20"},"sourceKey":"ifTrue","destinationUnit":{"$ref":"14"},"destinationKey":"enter","guid":"0622ecbf-21c7-437e-8ff0-6ae6b509ac5c","$type":"Unity.VisualScripting.ControlConnection"},{"sourceUnit":{"$ref":"36"},"sourceKey":"ifFalse","destinationUnit":{"$ref":"20"},"destinationKey":"enter","guid":"87b06c03-47ff-48e8-9200-60e9ed98de2a","$type":"Unity.VisualScripting.ControlConnection"},{"sourceUnit":{"$ref":"30"},"sourceKey":"exit","destinationUnit":{"$ref":"27"},"destinationKey":"enter","guid":"c2505bea-efb3-4bc1-81a1-8f85261717d2","$type":"Unity.VisualScripting.ControlConnection"},{"sourceUnit":{"$ref":"36"},"sourceKey":"ifTrue","destinationUnit":{"$ref":"30"},"destinationKey":"enter","guid":"00d3888f-8c31-4692-b839-8053ec99dc67","$type":"Unity.VisualScripting.ControlConnection"},{"sourceUnit":{"$ref":"38"},"sourceKey":"trigger","destinationUnit":{"$ref":"36"},"destinationKey":"enter","guid":"68cc35e7-c729-4b7a-937e-6aac79509789","$type":"Unity.VisualScripting.ControlConnection"},{"sourceUnit":{"$ref":"70"},"sourceKey":"exit","destinationUnit":{"$ref":"45"},"destinationKey":"enter","guid":"ba243a16-613e-4f86-86f0-df088d7af924","$type":"Unity.VisualScripting.ControlConnection"},{"sourceUnit":{"$ref":"65"},"sourceKey":"ifTrue","destinationUnit":{"$ref":"70"},"destinationKey":"enter","guid":"f65232c2-e87e-4751-b205-df91cec59fb2","$type":"Unity.VisualScripting.ControlConnection"},{"sourceUnit":{"$ref":"63"},"sourceKey":"ifFalse","destinationUnit":{"$ref":"65"},"destinationKey":"enter","guid":"24767d3f-13b4-4bf8-84da-f100a3229b0e","$type":"Unity.VisualScripting.ControlConnection"},{"sourceUnit":{"$ref":"53"},"sourceKey":"exit","destinationUnit":{"$ref":"58"},"destinationKey":"enter","guid":"1938d839-722a-4970-9701-1cbf7f68e8c1","$type":"Unity.VisualScripting.ControlConnection"},{"sourceUnit":{"$ref":"63"},"sourceKey":"ifTrue","destinationUnit":{"$ref":"53"},"destinationKey":"enter","guid":"e8dbc72d-c2e7-4003-a47e-a929cd630efb","$type":"Unity.VisualScripting.ControlConnection"},{"sourceUnit":{"$ref":"61"},"sourceKey":"product","destinationUnit":{"$ref":"58"},"destinationKey":"%translation","guid":"55019fef-4bf2-4c0b-a49b-fb2be0cb972c","$type":"Unity.VisualScripting.ValueConnection"},{"sourceUnit":{"$ref":"53"},"sourceKey":"result","destinationUnit":{"$ref":"61"},"destinationKey":"a","guid":"c7c94bfc-bc44-4c72-bb16-a37471ab64b5","$type":"Unity.VisualScripting.ValueConnection"},{"sourceUnit":{"$ref":"75"},"sourceKey":"value","destinationUnit":{"$ref":"61"},"destinationKey":"b","guid":"a572a1f4-0b13-4c9c-b2a9-adaf4c7dd534","$type":"Unity.VisualScripting.ValueConnection"},{"sourceUnit":{"$ref":"67"},"sourceKey":"result","destinationUnit":{"$ref":"65"},"destinationKey":"condition","guid":"828b1cf7-d109-45c3-afcc-7d19567e5ab4","$type":"Unity.VisualScripting.ValueConnection"},{"sourceUnit":{"$ref":"73"},"sourceKey":"value","destinationUnit":{"$ref":"70"},"destinationKey":"%maxLength","guid":"76d2003d-f1c4-4293-8fff-c1c8a0983d96","$type":"Unity.VisualScripting.ValueConnection"},{"sourceUnit":{"$ref":"48"},"sourceKey":"product","destinationUnit":{"$ref":"45"},"destinationKey":"%translation","guid":"80a3a0fd-f95c-46cb-9a5a-42bcec0b0ea1","$type":"Unity.VisualScripting.ValueConnection"},{"sourceUnit":{"$ref":"33"},"sourceKey":"result","destinationUnit":{"$ref":"36"},"destinationKey":"condition","guid":"ceb2ca08-5b48-4e1e-a2b2-5a335739259c","$type":"Unity.VisualScripting.ValueConnection"},{"sourceUnit":{"$ref":"40"},"sourceKey":"value","destinationUnit":{"$ref":"48"},"destinationKey":"b","guid":"5fc19cb3-05a5-4715-8240-be4aed0c6a98","$type":"Unity.VisualScripting.ValueConnection"},{"sourceUnit":{"$ref":"43"},"sourceKey":"value","destinationUnit":{"$ref":"30"},"destinationKey":"%maxLength","guid":"bffb603c-ebae-4239-860b-369aa63429b4","$type":"Unity.VisualScripting.ValueConnection"},{"sourceUnit":{"$ref":"30"},"sourceKey":"result","destinationUnit":{"$ref":"25"},"destinationKey":"a","guid":"5d0ff688-ae2c-415c-aeb7-b5d38ac763fa","$type":"Unity.VisualScripting.ValueConnection"},{"sourceUnit":{"$ref":"25"},"sourceKey":"product","destinationUnit":{"$ref":"27"},"destinationKey":"%eulers","guid":"4c53adef-5843-45ae-8fc0-2bf971df2832","$type":"Unity.VisualScripting.ValueConnection"},{"sourceUnit":{"$ref":"70"},"sourceKey":"result","destinationUnit":{"$ref":"48"},"destinationKey":"a","guid":"c52da2f4-c9ed-44ca-9289-0db5e1224720","$type":"Unity.VisualScripting.ValueConnection"},{"sourceUnit":{"$ref":"56"},"sourceKey":"value","destinationUnit":{"$ref":"53"},"destinationKey":"%maxLength","guid":"1a89036c-d24e-48df-b607-9a810b8d45fe","$type":"Unity.VisualScripting.ValueConnection"},{"sourceUnit":{"$ref":"22"},"sourceKey":"value","destinationUnit":{"$ref":"25"},"destinationKey":"b","guid":"a19e3480-294d-45e2-8fe5-52ead0e090be","$type":"Unity.VisualScripting.ValueConnection"},{"sourceUnit":{"$ref":"50"},"sourceKey":"result","destinationUnit":{"$ref":"63"},"destinationKey":"condition","guid":"996491e9-cdc3-4839-9958-6403bc4af420","$type":"Unity.VisualScripting.ValueConnection"},{"sourceUnit":{"$ref":"17"},"sourceKey":"result","destinationUnit":{"$ref":"20"},"destinationKey":"condition","guid":"5e525b7c-3946-411f-84df-d83ff275d5c3","$type":"Unity.VisualScripting.ValueConnection"},{"sourceUnit":{"$ref":"14"},"sourceKey":"result","destinationUnit":{"$ref":"78"},"destinationKey":"a","guid":"39b9fa65-7435-4232-bcf6-55dec2a6fbaa","$type":"Unity.VisualScripting.ValueConnection"},{"sourceUnit":{"$ref":"78"},"sourceKey":"product","destinationUnit":{"$ref":"11"},"destinationKey":"%eulers","guid":"457bef47-f6c6-4a3d-a991-6acf3e084e10","$type":"Unity.VisualScripting.ValueConnection"},{"sourceUnit":{"$ref":"80"},"sourceKey":"value","destinationUnit":{"$ref":"14"},"destinationKey":"%maxLength","guid":"e7665947-1b78-4a8d-aa37-46a9d8fa5cf0","$type":"Unity.VisualScripting.ValueConnection"},{"sourceUnit":{"$ref":"82"},"sourceKey":"value","destinationUnit":{"$ref":"78"},"destinationKey":"b","guid":"080371a3-0d26-4658-a11a-d259a8261433","$type":"Unity.VisualScripting.ValueConnection"}],"$version":"A"}}'
    _objectReferences: []
